<svg width="1363" height="1340" viewBox="0 0 1363 1340" fill="none" xmlns="http://www.w3.org/2000/svg">
<ellipse opacity="0.329939" cx="424.312" cy="938.356" rx="937.591" ry="938" transform="rotate(-90 424.312 938.356)" fill="url(#paint0_linear)"/>
<defs>
<linearGradient id="paint0_linear" x1="-915.781" y1="957.007" x2="691.49" y2="3062.58" gradientUnits="userSpaceOnUse">
<stop offset="0.0163079" stop-color="#E6F4FB" stop-opacity="0.857299"/>
<stop offset="1" stop-color="#EAF2F0"/>
</linearGradient>
</defs>
</svg>
