<svg width="131" height="128" viewBox="0 0 131 128" fill="none" xmlns="http://www.w3.org/2000/svg">
<path fill-rule="evenodd" clip-rule="evenodd" d="M22.9073 15.527C22.2818 16.1749 22.2932 17.1986 22.9329 17.8327L26.6232 21.4903L12.9717 78.5886L54.7708 120L110.034 104.163L114.475 108.565C115.033 109.118 115.932 109.141 116.518 108.617C117.146 108.055 117.173 107.088 116.576 106.493L25.2946 15.5044C24.634 14.846 23.555 14.8562 22.9073 15.527Z" fill="url(#paint0_linear)"/>
<path d="M83.4995 32L65.5403 14.0389" stroke="#7FA9B3" stroke-width="4" stroke-linecap="round"/>
<path d="M70.552 32L50.3882 12.0394" stroke="#7FA9B3" stroke-width="4" stroke-linecap="round"/>
<path d="M56.2192 32L33.2158 9.04011" stroke="#7FA9B3" stroke-width="4" stroke-linecap="round"/>
<rect x="48.328" y="42" width="33.336" height="52" fill="white"/>
<path d="M74.675 40.0002V41.0002H75.675L78.3437 41.0002C78.344 41.0002 78.3443 41.0002 78.3446 41.0002C80.7415 41.0032 82.6818 42.9432 82.6843 45.3346V90.6656C82.6818 93.0573 80.741 94.9975 78.3437 95H51.6482C49.2511 94.9975 47.3104 93.0575 47.3076 90.6661V45.3341C47.3104 42.9429 49.2506 41.0032 51.6474 41.0002C51.6476 41.0002 51.6479 41.0002 51.6482 41.0002L54.3169 41.0002H55.3169V40.0002V33.3336C55.3169 33.1506 55.4657 33.0003 55.6518 33.0003L55.6557 33.0003C56.299 32.9978 56.9168 33.2499 57.3741 33.7011L57.3993 33.7259L57.4262 33.7489C57.4358 33.7571 57.4456 33.7656 57.4558 33.7743C57.5898 33.8894 57.7748 34.0483 57.9752 34.1542C58.2726 34.3113 58.5437 34.3336 58.7609 34.3336C58.978 34.3336 59.249 34.3114 59.5465 34.1547C59.7502 34.0474 59.9367 33.8867 60.0726 33.7696C60.0818 33.7617 60.0908 33.7539 60.0996 33.7464L60.1238 33.7256L60.1467 33.7032C61.1063 32.7659 62.6402 32.7659 63.5997 33.7032L63.6234 33.7263L63.6485 33.7478C63.6569 33.755 63.6655 33.7624 63.6743 33.7699C63.8118 33.8878 63.999 34.0484 64.2037 34.1556C64.5006 34.3112 64.7708 34.3336 64.9881 34.3336C65.2052 34.3336 65.4763 34.3113 65.7738 34.1545C65.9775 34.0472 66.1641 33.8864 66.3002 33.769C66.3094 33.7611 66.3183 33.7534 66.327 33.746L66.3509 33.7254L66.3734 33.7034C67.3348 32.7657 68.8701 32.7655 69.8316 33.703L69.8541 33.7249L69.8779 33.7453C69.887 33.7531 69.8964 33.7612 69.906 33.7695C70.0416 33.8864 70.2284 34.0475 70.4325 34.1548C70.7313 34.312 71.0037 34.3336 71.2207 34.3336C71.4382 34.3336 71.7102 34.3117 72.0085 34.1551C72.2129 34.0478 72.4 33.8869 72.5361 33.7698C72.5456 33.7616 72.5549 33.7537 72.5638 33.746L72.5894 33.7241L72.6134 33.7005C73.0727 33.2496 73.6918 32.9978 74.3363 33.0003H74.3401C74.5262 33.0003 74.675 33.1506 74.675 33.3336V40.0002Z" stroke="#183B56" stroke-width="2"/>
<path d="M58.761 36.0003C59.6684 36.0035 60.5404 35.6485 61.187 35.0127C61.5254 34.7216 61.599 34.6669 61.874 34.6669C62.1489 34.6669 62.2221 34.7216 62.561 35.0127C63.9102 36.3294 66.0651 36.3294 67.4142 35.0127C67.7532 34.7216 67.8261 34.6669 68.1013 34.6669C68.3803 34.6669 68.4532 34.7216 68.7934 35.0136C69.4408 35.6491 70.3131 36.0037 71.2208 36.0003C71.8534 36.0108 72.4747 35.8327 73.0054 35.4887V45.3336H56.9868V35.4924C57.5146 35.8339 58.1322 36.0107 58.761 36.0003Z" fill="white"/>
<path fill-rule="evenodd" clip-rule="evenodd" d="M53.5072 50.0877H76.4723C77.5582 50.0885 78.0195 50.8193 78.0211 51.7209V59.6878C78.0195 60.5893 77.5565 61.3202 76.4723 61.321H53.5072C52.625 61.3203 51.9724 60.5893 51.9707 59.6878V51.7209C51.9724 50.8193 52.625 50.0883 53.5072 50.0877ZM54.3169 52.1437H75.6759V59.4242H54.3169V52.1437Z" fill="#FBBD92"/>
<path fill-rule="evenodd" clip-rule="evenodd" d="M54.3169 63.7193H75.675C77.1487 63.7213 78.343 65.1395 78.3447 66.8896V87.4964C78.343 89.2465 77.1487 90.6647 75.675 90.6667H54.3169C52.8431 90.6647 51.6488 89.2465 51.6471 87.4964V66.8896C51.6488 65.1395 52.8431 63.7213 54.3169 63.7193ZM70.3354 71.645H75.675V66.8896H70.3354V71.645ZM54.3169 74.8153H59.6564V79.5707H54.3169V74.8153ZM67.6657 74.8153H62.3262V79.5707H67.6657V74.8153ZM70.3354 74.8153H75.675V79.5707H70.3354V74.8153ZM67.6657 71.645V66.8896H62.3262V71.645H67.6657ZM59.6564 66.8896V71.645H54.3169V66.8896H59.6564ZM59.6564 82.741H54.3169V87.4964H59.6564V82.741ZM62.3262 87.4964V82.741H67.6657V87.4964H62.3262ZM70.3354 82.741V87.4964H75.6759V82.741H70.3354Z" fill="#183B56"/>
<defs>
<linearGradient id="paint0_linear" x1="-39.0459" y1="67.5085" x2="65.9324" y2="171.539" gradientUnits="userSpaceOnUse">
<stop stop-color="#BBD6D9"/>
<stop offset="1" stop-color="#507785"/>
</linearGradient>
</defs>
</svg>
