<svg width="13" height="4" viewBox="0 0 13 4" fill="none" xmlns="http://www.w3.org/2000/svg">
<path d="M11.967 0.4375H1.46704C0.974854 0.4375 0.592041 0.847656 0.592041 1.3125V2.1875C0.592041 2.67969 0.974854 3.0625 1.46704 3.0625H11.967C12.4319 3.0625 12.842 2.67969 12.842 2.1875V1.3125C12.842 0.847656 12.4319 0.4375 11.967 0.4375Z" fill="#183B56"/>
</svg>
